<?xml version="1.0" standalone="no"?>
<!DOCTYPE svg PUBLIC "-//W3C//DTD SVG 20010904//EN"
 "http://www.w3.org/TR/2001/REC-SVG-20010904/DTD/svg10.dtd">
<svg version="1.0" xmlns="http://www.w3.org/2000/svg"
 width="63.000000pt" height="63.000000pt" viewBox="0 0 63.000000 63.000000"
 preserveAspectRatio="xMidYMid meet">
<metadata>
Created by potrace 1.10, written by Peter Selinger 2001-2011
</metadata>
<g transform="translate(0.000000,63.000000) scale(0.100000,-0.100000)"
fill="#000000" stroke="none">
<path d="M183 438 l-153 -153 122 -123 122 -122 41 40 41 40 17 -29 c18 -30
71 -61 107 -61 30 0 75 25 99 56 32 41 29 113 -6 151 -16 16 -35 32 -43 35
-12 4 -8 13 18 40 29 31 32 39 32 99 l0 65 -58 57 -58 57 -64 0 -65 0 -152
-152z m324 80 c51 -51 53 -54 53 -107 0 -50 -3 -59 -37 -93 -25 -26 -46 -38
-64 -38 -41 0 -87 -44 -102 -98 -8 -25 -18 -47 -23 -49 -5 -2 -56 44 -114 102
l-105 105 115 115 115 115 55 0 c52 0 56 -2 107 -52z m-297 -303 l105 -105
-23 -22 -22 -23 -107 107 c-106 106 -107 107 -88 128 10 11 21 20 24 20 4 0
53 -47 111 -105z m341 16 c59 -60 27 -161 -56 -177 -68 -13 -135 58 -120 127
17 76 120 105 176 50z"/>
<path d="M416 487 c-21 -16 -18 -45 7 -61 37 -23 77 35 41 61 -10 7 -21 13
-24 13 -3 0 -14 -6 -24 -13z m40 -18 c10 -17 -13 -36 -27 -22 -12 12 -4 33 11
33 5 0 12 -5 16 -11z"/>
<path d="M470 201 c0 -28 -3 -31 -30 -31 -16 0 -30 -4 -30 -10 0 -5 14 -10 30
-10 27 0 30 -3 30 -30 0 -16 5 -30 10 -30 6 0 10 14 10 30 0 27 3 30 31 30 17
0 28 4 24 10 -3 6 -17 10 -31 10 -19 0 -24 5 -24 24 0 14 -4 28 -10 31 -6 4
-10 -7 -10 -24z"/>
</g>
</svg>
