<?xml version="1.0" standalone="no"?>
<!DOCTYPE svg PUBLIC "-//W3C//DTD SVG 20010904//EN"
 "http://www.w3.org/TR/2001/REC-SVG-20010904/DTD/svg10.dtd">
<svg version="1.0" xmlns="http://www.w3.org/2000/svg"
 width="135.000000pt" height="114.000000pt" viewBox="0 0 135.000000 114.000000"
 preserveAspectRatio="xMidYMid meet">
<metadata>
Created by potrace 1.10, written by Peter Selinger 2001-2011
</metadata>
<g transform="translate(0.000000,114.000000) scale(0.100000,-0.100000)"
fill="#000000" stroke="none">
<path d="M465 873 c-16 -3 -32 -9 -35 -14 -3 -5 -5 -66 -4 -136 l2 -128 68 -8
c81 -9 96 -5 92 25 -3 20 -9 23 -51 24 -56 1 -70 11 -65 50 3 27 6 29 46 29
42 1 66 17 58 40 -1 6 -25 10 -52 10 -48 0 -49 1 -49 30 0 30 1 30 58 33 54 3
58 5 55 25 -3 19 -10 22 -48 23 -25 1 -58 -1 -75 -3z"/>
<path d="M843 865 c-23 -17 -7 -35 32 -35 l34 0 3 -122 c3 -115 4 -123 23
-123 19 0 20 7 22 110 1 61 2 116 3 123 0 7 13 12 29 12 34 0 44 10 31 30 -12
19 -154 22 -177 5z"/>
<path d="M164 857 c-2 -7 -3 -71 -2 -143 3 -121 4 -129 23 -129 19 0 20 7 20
99 0 59 4 101 10 103 6 2 22 -22 35 -52 13 -30 28 -55 32 -55 4 0 8 -8 8 -17
0 -31 38 -83 55 -77 13 5 15 27 13 143 -3 128 -4 136 -23 136 -18 0 -20 -7
-20 -79 0 -54 -4 -80 -12 -83 -8 -3 -13 5 -13 21 0 13 -4 27 -9 31 -6 3 -20
27 -33 53 -13 26 -27 50 -33 54 -16 12 -45 9 -51 -5z"/>
<path d="M624 855 c-3 -8 8 -35 25 -60 38 -56 38 -64 6 -111 -30 -44 -41 -82
-28 -95 14 -14 53 19 53 44 0 12 4 28 9 35 12 20 45 10 49 -13 2 -12 13 -34
26 -49 19 -25 25 -27 43 -17 21 11 21 12 -14 63 -19 29 -39 55 -44 56 -14 5
-11 50 4 59 25 15 56 78 47 93 -13 21 -41 3 -59 -38 -19 -43 -47 -42 -56 1
-10 45 -49 65 -61 32z"/>
<path d="M982 488 c-20 -20 -13 -46 18 -68 17 -12 30 -27 30 -33 0 -9 -112
-12 -457 -12 l-458 0 -3 -29 c-2 -16 1 -33 6 -38 10 -10 721 -12 840 -2 84 8
91 -1 41 -52 -33 -34 -34 -59 -4 -70 11 -5 39 18 90 72 41 44 75 80 75 82 0 1
-19 21 -43 45 -24 23 -56 59 -71 80 -30 39 -44 45 -64 25z"/>
</g>
</svg>
